…
```r
library(tidyverse)
library(hnp)

dados <- read.csv("../dados/Arthritis.txt", sep="", 
                  stringsAsFactors=TRUE)

dados$id<- 1:nrow(dados)

dados<- tibble(dados)
dados
```

```
## # A tibble: 51 × 9
##    Sex     Age Group Week0 Week1 Week5 Week9 Week13    id
##    <fct> <int> <fct> <int> <int> <int> <int>  <int> <int>
##  1 M        48 A         1     1     1     1      1     1
##  2 M        29 A         1     1     1     1      1     2
##  3 M        59 P         1     1     1     1      1     3
##  4 F        56 P         1     1     1     1      1     4
##  5 M        33 P         1     1     1     1      1     5
##  6 M        61 P         1     1     0     1      1     6
##  7 M        63 A         0     0     1    NA     NA     7
##  8 M        57 P         1     0     1     1      1     8
##  9 M        47 P         1     1     1     0      1     9
## 10 F        42 A         0     0     1    NA      0    10
## # … with 41 more rows
```
…
